; Engine configuration file.
; It's best edited using the editor UI and not directly,
; since the parameters that go here are not all obvious.
;
; Format:
;   [section] ; section goes between []
;   param=value ; assign values to parameters

config_version=4

_global_script_classes=[  ]
_global_script_class_icons={

}

[application]

config/name="CardGame"
run/main_scene="res://Table.tscn"
config/icon="res://icon.png"

[display]

window/size/width=1280
window/size/height=800
window/size/resizable=false
window/size/always_on_top=true

[rendering]

quality/driver/driver_name="GLES2"
quality/2d/use_pixel_snap=true
vram_compression/import_etc=true
vram_compression/import_etc2=false
environment/default_clear_color=Color( 0, 1, 0.0392157, 1 )
environment/default_environment="res://default_env.tres"
